service_id,monday,tuesday,wednesday,thursday,friday,saturday,sunday,start_date,end_date
1,1,0,1,0,0,0,0,20150528,20150826
2,1,0,0,1,0,0,0,20150601,20150605
3,0,0,0,0,1,1,0,20150528,20150608
4,0,0,0,1,0,0,0,20150528,20150606
5,0,0,0,0,0,1,1,20150530,20150601
6,0,0,0,0,0,0,1,20150609,20150826
7,1,1,0,0,0,0,0,20150607,20150801
8,0,0,0,0,0,1,1,20150606,20150608
9,0,1,0,0,0,0,0,20150607,20150801
10,1,1,1,1,1,0,0,20150607,20150801
11,0,0,0,0,0,1,0,20150529,20150530
12,0,0,0,0,0,1,0,20150528,20150715
13,0,0,0,0,0,1,0,20150530,20150602
14,0,0,0,0,0,1,0,20150528,20150606
15,0,0,0,0,0,1,0,20150528,20150608
16,0,0,0,0,0,1,0,20150606,20150609
17,1,1,1,0,0,0,0,20150528,20150606
18,1,0,0,0,1,1,0,20150528,20150608
19,0,0,1,0,0,0,0,20150607,20150801
20,0,0,0,0,1,0,0,20150528,20150608
21,0,0,1,0,0,0,0,20150607,20150801
22,0,0,0,0,0,0,1,20150530,20150601
23,1,1,1,1,1,1,0,20150609,20150826
24,1,0,0,0,0,0,1,20150528,20150715
25,1,0,0,0,0,0,0,20150528,20150826
26,1,1,0,0,1,0,0,20150607,20150801
27,1,1,1,1,0,0,0,20150528,20150710
28,0,0,0,0,0,1,0,20150528,20150606
29,0,0,1,0,0,0,0,20150528,20150826
30,1,1,1,1,1,0,0,20150528,20150606
31,1,1,1,1,1,1,0,20150528,20150826
32,0,1,0,0,0,1,0,20150530,20150602
33,1,1,1,0,1,0,0,20150601,20150605
34,0,0,1,0,1,0,0,20150528,20150826
35,1,1,1,1,1,0,0,20150601,20150826
36,1,1,0,1,1,0,0,20150601,20150605
37,0,1,1,1,0,0,0,20150616,20150618
38,0,0,0,0,1,1,1,20150528,20150826
39,1,0,1,0,1,0,0,20150528,20150826
40,0,0,0,0,0,0,1,20150531,20150531
41,0,0,0,0,0,0,1,20150607,20150801
42,0,1,0,0,0,0,0,20150606,20150610
43,0,1,0,0,0,0,0,20150530,20150602
44,0,1,1,0,1,0,0,20150609,20150612
45,1,0,1,0,1,0,0,20150601,20150605
46,0,0,1,1,0,0,0,20150601,20150605
47,0,0,0,1,0,0,0,20150601,20150605
48,1,1,1,1,1,0,0,20150601,20150827
49,0,0,0,0,0,1,0,20150528,20150531
50,0,0,0,1,1,0,0,20150601,20150605
51,1,1,1,1,0,0,0,20150528,20150710
52,0,0,0,0,0,1,0,20150607,20150801
53,1,0,0,0,0,0,1,20150528,20150710
54,0,0,0,0,0,1,0,20150530,20150601
55,1,1,1,1,0,0,0,20150528,20150715
56,1,1,1,1,1,0,0,20150528,20150826
57,0,0,0,0,0,1,0,20150528,20150710
58,0,0,1,0,0,0,0,20150609,20150612
59,0,1,1,1,0,0,0,20150609,20150612
60,0,0,0,0,0,0,1,20150528,20150606
61,1,1,0,1,1,0,0,20150613,20150826
62,0,0,0,0,0,1,0,20150601,20150826
63,0,0,0,0,1,1,0,20150528,20150826
64,1,1,1,1,1,0,0,20150528,20150826
65,0,0,0,0,0,0,1,20150607,20150801
66,0,0,0,0,0,1,0,20150528,20150606
67,0,0,0,0,1,0,0,20150601,20150827
68,1,1,1,1,0,0,0,20150601,20150605
69,0,0,0,0,0,1,1,20150528,20150826
70,0,0,0,1,1,0,0,20150613,20150826
71,0,0,1,1,1,0,0,20150607,20150801
72,1,0,0,0,0,1,0,20150606,20150608
73,0,0,0,0,1,0,0,20150609,20150612
74,0,0,1,0,0,0,0,20150601,20150605
75,0,1,1,0,0,0,0,20150616,20150618
76,0,0,0,0,1,0,0,20150613,20150826
77,1,1,1,1,0,0,0,20150528,20150715
78,1,0,0,0,0,1,1,20150606,20150609
79,0,0,0,1,0,0,0,20150609,20150612
80,0,0,0,1,0,0,0,20150528,20150710
81,0,0,1,0,0,0,0,20150528,20150606
82,0,0,0,0,0,1,1,20150528,20150826
83,1,1,1,1,0,0,0,20150528,20150606
84,0,0,0,0,1,0,0,20150528,20150529
85,1,1,1,1,1,0,0,20150528,20150826
86,1,1,1,1,0,0,0,20150528,20150806
87,1,1,0,0,0,0,0,20150528,20150606
88,0,0,0,0,1,0,0,20150607,20150801
89,1,1,1,1,1,0,0,20150609,20150826
90,1,0,1,0,1,0,0,20150613,20150826
91,0,1,0,1,0,0,0,20150528,20150826
92,0,0,0,0,0,1,0,20150607,20150801
93,0,1,1,1,0,0,0,20150601,20150605
94,0,1,0,0,0,0,0,20150601,20150605
95,0,0,1,0,0,0,0,20150607,20150801
96,0,0,0,1,0,0,0,20150528,20150529
97,0,1,0,0,1,0,0,20150528,20150826
98,1,0,0,0,0,1,1,20150606,20150610
99,0,0,0,0,0,0,1,20150528,20150608
100,1,1,1,1,0,1,1,20150528,20150806
101,1,1,1,1,1,1,1,20150528,20150608
102,1,1,1,1,1,0,0,20150528,20150715
103,0,1,0,1,1,0,0,20150601,20150605
104,1,0,0,0,0,0,1,20150601,20150826
105,0,0,0,0,1,0,0,20150528,20150710
106,0,0,0,0,0,0,1,20150530,20150531
107,0,0,0,0,1,0,0,20150529,20150601
108,1,1,1,1,1,1,1,20150528,20150608
109,1,1,1,0,0,0,0,20150601,20150605
110,0,1,1,1,1,0,0,20150601,20150605
111,0,0,0,1,0,0,0,20150607,20150801
112,1,1,1,1,0,0,0,20150528,20150826
113,0,0,0,1,1,0,0,20150607,20150801
114,1,1,1,1,1,0,0,20150607,20150801
115,0,0,0,1,1,0,0,20150528,20150531
116,0,0,0,0,0,1,1,20150530,20150531
117,1,0,0,1,0,0,0,20150528,20150606
118,0,1,1,1,0,0,0,20150607,20150801
119,1,1,1,0,0,0,0,20150607,20150801
120,1,1,1,1,1,1,0,20150528,20150806
121,0,1,0,1,1,0,0,20150528,20150826
122,0,0,0,0,0,1,0,20150528,20150608
123,0,0,0,0,0,0,1,20150528,20150531
124,0,1,1,1,1,0,0,20150609,20150612
125,0,1,1,1,1,0,0,20150528,20150806
126,0,0,0,1,1,0,0,20150601,20150826
127,1,0,0,0,0,0,0,20150607,20150801
128,1,0,0,0,0,0,0,20150601,20150605
129,0,1,1,0,0,0,0,20150609,20150612
130,0,0,0,1,1,0,0,20150609,20150612
131,1,1,1,1,1,1,1,20150609,20150826
132,0,0,1,0,1,0,0,20150528,20150806
133,1,0,0,0,0,0,1,20150607,20150801
134,0,0,0,0,0,1,0,20150528,20150826
135,0,0,0,0,1,0,0,20150528,20150826
136,0,0,0,1,0,0,0,20150607,20150801
137,0,0,0,0,0,1,0,20150609,20150826
138,1,1,1,1,1,0,0,20150528,20150715
139,0,1,0,1,0,0,0,20150601,20150605
140,0,0,1,1,1,0,0,20150601,20150605
141,0,0,0,0,0,0,1,20150615,20150621
142,0,0,0,0,0,1,0,20150615,20150621
143,1,0,1,1,0,0,0,20150601,20150605
144,0,0,0,0,0,0,1,20150528,20150826
145,0,0,0,0,1,0,0,20150528,20150606
146,1,0,0,0,0,0,1,20150528,20150826
147,0,0,0,0,0,1,1,20150528,20150826
148,0,0,0,0,0,1,0,20150613,20150826
149,1,1,1,1,1,0,0,20150528,20150826
150,1,1,0,1,0,0,0,20150528,20150826
151,1,1,1,1,1,1,0,20150528,20150608
152,1,1,1,1,0,0,0,20150607,20150801
153,1,1,1,1,1,0,0,20150601,20150826
154,1,1,1,1,1,0,0,20150528,20150826
155,0,0,0,0,0,1,0,20150530,20150531
156,0,0,0,0,0,0,1,20150606,20150608
157,1,1,0,1,1,0,0,20150528,20150806
158,0,0,1,1,0,0,0,20150528,20150606
159,1,1,1,1,0,0,0,20150528,20150826
160,0,1,0,0,0,0,0,20150609,20150612
161,1,1,1,1,1,0,0,20150601,20150827
162,0,0,0,0,0,1,0,20150607,20150801
163,1,0,0,0,0,0,1,20150528,20150826
164,1,0,0,0,0,1,1,20150606,20150608
165,0,0,0,0,0,1,1,20150609,20150826
166,0,1,1,0,0,0,0,20150607,20150801
167,0,0,0,0,0,1,0,20150606,20150608
168,1,0,0,0,0,0,1,20150601,20150826
169,1,0,1,0,1,0,0,20150528,20150826
170,1,1,1,1,1,1,1,20150528,20150826
171,0,0,0,0,0,1,1,20150613,20150826
172,0,0,0,0,0,1,0,20150601,20150827
173,1,0,0,0,0,0,1,20150606,20150608
174,1,0,1,0,0,0,0,20150601,20150605
175,1,0,0,0,0,0,0,20150606,20150608
176,1,1,1,0,1,0,0,20150607,20150801
177,1,1,0,0,0,0,0,20150601,20150605
178,0,0,0,0,1,0,0,20150529,20150530
179,0,0,0,1,0,0,0,20150607,20150801
180,0,1,0,0,1,0,0,20150528,20150826
181,1,1,1,1,1,0,0,20150601,20150827
182,0,0,0,0,1,0,0,20150528,20150710
183,1,0,0,0,0,0,0,20150528,20150806
184,0,0,0,0,0,1,0,20150528,20150608
185,1,1,1,1,0,0,0,20150613,20150826
186,0,0,0,0,1,0,0,20150609,20150826
187,1,1,1,1,1,0,0,20150528,20150608
188,0,0,0,0,1,0,0,20150528,20150826
189,0,0,1,0,0,0,0,20150613,20150826
190,0,0,0,0,0,1,1,20150528,20150826
191,1,1,1,1,1,0,0,20150601,20150826
192,1,1,1,1,1,0,0,20150601,20150605
193,0,1,0,1,0,0,0,20150609,20150612
194,1,1,0,0,0,0,0,20150528,20150826
195,0,1,0,1,0,0,0,20150528,20150826
196,0,0,0,0,1,0,0,20150528,20150715
197,1,1,1,1,1,0,0,20150528,20150826
198,0,0,0,0,1,1,0,20150609,20150826
199,0,0,1,0,1,0,0,20150609,20150612
200,0,1,0,1,1,0,0,20150613,20150826
201,1,1,1,1,1,0,1,20150528,20150806
202,1,1,1,1,1,0,0,20150528,20150710
203,0,0,0,1,0,0,0,20150528,20150826
204,0,0,0,0,1,0,0,20150601,20150605
205,1,1,1,1,1,1,1,20150528,20150608
206,1,0,1,0,0,0,0,20150613,20150826
207,0,0,0,0,0,1,0,20150601,20150826
208,1,0,1,0,0,0,0,20150528,20150826
209,0,1,0,1,1,0,0,20150609,20150612
210,0,0,0,1,1,0,0,20150528,20150529
211,1,1,1,1,0,0,0,20150607,20150801
212,0,0,0,0,0,1,0,20150528,20150826
213,1,1,1,1,0,0,0,20150615,20150621
214,0,0,0,0,1,0,0,20150528,20150826
215,0,0,0,0,1,0,0,20150528,20150806
216,0,0,0,0,0,0,1,20150607,20150801
217,1,1,1,0,0,0,0,20150613,20150826
218,0,1,0,1,0,0,0,20150613,20150826
219,1,0,0,1,1,0,0,20150601,20150605
220,0,0,1,1,1,0,0,20150609,20150612
221,1,0,0,0,0,0,1,20150601,20150827
222,1,1,1,1,1,0,0,20150528,20150826
223,1,0,0,1,1,0,0,20150607,20150801
224,0,0,0,0,1,0,0,20150601,20150826
225,1,1,1,1,1,0,0,20150528,20150826
226,0,0,0,0,1,0,0,20150528,20150715
227,1,1,1,1,1,0,0,20150613,20150826
228,1,1,1,0,1,0,0,20150607,20150801
229,0,0,0,0,0,1,1,20150528,20150826
230,1,1,1,0,1,0,0,20150528,20150710
231,0,0,0,1,0,0,0,20150528,20150826
232,0,1,0,1,1,0,0,20150528,20150826
233,1,1,1,1,1,1,1,20150528,20150826
234,1,0,0,0,0,0,0,20150529,20150601
235,0,0,1,1,1,0,0,20150528,20150826
236,0,0,0,0,1,0,0,20150528,20150531
237,0,0,0,0,0,0,1,20150613,20150826
238,0,0,1,1,0,0,0,20150616,20150618
239,1,1,1,1,1,1,1,20150528,20150826
240,0,0,0,0,0,1,0,20150606,20150606
241,1,0,1,1,1,0,0,20150601,20150605
242,0,1,0,0,1,0,0,20150528,20150826
243,1,0,0,0,0,1,1,20150528,20150608
244,0,1,0,1,1,0,0,20150528,20150826
245,1,1,1,1,1,0,0,20150528,20150826
246,1,1,1,1,1,0,0,20150528,20150710
